%!PS-Adobe-2.0 EPSF-2.0
%%Title: checkS_Omega.tex
%%Creator: gnuplot 5.2 patchlevel 2
%%CreationDate: Sat Mar 11 13:45:04 2023
%%DocumentFonts: 
%%BoundingBox: 50 50 410 302
%%EndComments
%%BeginProlog
/gnudict 256 dict def
gnudict begin
%
% The following true/false flags may be edited by hand if desired.
% The unit line width and grayscale image gamma correction may also be changed.
%
/Color false def
/Blacktext true def
/Solid false def
/Dashlength 1 def
/Landscape false def
/Level1 false def
/Level3 false def
/Rounded false def
/ClipToBoundingBox false def
/SuppressPDFMark false def
/TransparentPatterns false def
/gnulinewidth 5.000 def
/userlinewidth gnulinewidth def
/Gamma 1.0 def
/BackgroundColor {-1.000 -1.000 -1.000} def
%
/vshift -73 def
/dl1 {
  10.0 Dashlength userlinewidth gnulinewidth div mul mul mul
  Rounded { currentlinewidth 0.75 mul sub dup 0 le { pop 0.01 } if } if
} def
/dl2 {
  10.0 Dashlength userlinewidth gnulinewidth div mul mul mul
  Rounded { currentlinewidth 0.75 mul add } if
} def
/hpt_ 31.5 def
/vpt_ 31.5 def
/hpt hpt_ def
/vpt vpt_ def
/doclip {
  ClipToBoundingBox {
    newpath 50 50 moveto 410 50 lineto 410 302 lineto 50 302 lineto closepath
    clip
  } if
} def
%
% Gnuplot Prolog Version 5.1 (Oct 2015)
%
%/SuppressPDFMark true def
%
/M {moveto} bind def
/L {lineto} bind def
/R {rmoveto} bind def
/V {rlineto} bind def
/N {newpath moveto} bind def
/Z {closepath} bind def
/C {setrgbcolor} bind def
/f {rlineto fill} bind def
/g {setgray} bind def
/Gshow {show} def   % May be redefined later in the file to support UTF-8
/vpt2 vpt 2 mul def
/hpt2 hpt 2 mul def
/Lshow {currentpoint stroke M 0 vshift R 
	Blacktext {gsave 0 setgray textshow grestore} {textshow} ifelse} def
/Rshow {currentpoint stroke M dup stringwidth pop neg vshift R
	Blacktext {gsave 0 setgray textshow grestore} {textshow} ifelse} def
/Cshow {currentpoint stroke M dup stringwidth pop -2 div vshift R 
	Blacktext {gsave 0 setgray textshow grestore} {textshow} ifelse} def
/UP {dup vpt_ mul /vpt exch def hpt_ mul /hpt exch def
  /hpt2 hpt 2 mul def /vpt2 vpt 2 mul def} def
/DL {Color {setrgbcolor Solid {pop []} if 0 setdash}
 {pop pop pop 0 setgray Solid {pop []} if 0 setdash} ifelse} def
/BL {stroke userlinewidth 2 mul setlinewidth
	Rounded {1 setlinejoin 1 setlinecap} if} def
/AL {stroke userlinewidth 2 div setlinewidth
	Rounded {1 setlinejoin 1 setlinecap} if} def
/UL {dup gnulinewidth mul /userlinewidth exch def
	dup 1 lt {pop 1} if 10 mul /udl exch def} def
/PL {stroke userlinewidth setlinewidth
	Rounded {1 setlinejoin 1 setlinecap} if} def
3.8 setmiterlimit
% Classic Line colors (version 5.0)
/LCw {1 1 1} def
/LCb {0 0 0} def
/LCa {0 0 0} def
/LC0 {1 0 0} def
/LC1 {0 1 0} def
/LC2 {0 0 1} def
/LC3 {1 0 1} def
/LC4 {0 1 1} def
/LC5 {1 1 0} def
/LC6 {0 0 0} def
/LC7 {1 0.3 0} def
/LC8 {0.5 0.5 0.5} def
% Default dash patterns (version 5.0)
/LTB {BL [] LCb DL} def
/LTw {PL [] 1 setgray} def
/LTb {PL [] LCb DL} def
/LTa {AL [1 udl mul 2 udl mul] 0 setdash LCa setrgbcolor} def
/LT0 {PL [] LC0 DL} def
/LT1 {PL [2 dl1 3 dl2] LC1 DL} def
/LT2 {PL [1 dl1 1.5 dl2] LC2 DL} def
/LT3 {PL [6 dl1 2 dl2 1 dl1 2 dl2] LC3 DL} def
/LT4 {PL [1 dl1 2 dl2 6 dl1 2 dl2 1 dl1 2 dl2] LC4 DL} def
/LT5 {PL [4 dl1 2 dl2] LC5 DL} def
/LT6 {PL [1.5 dl1 1.5 dl2 1.5 dl1 1.5 dl2 1.5 dl1 6 dl2] LC6 DL} def
/LT7 {PL [3 dl1 3 dl2 1 dl1 3 dl2] LC7 DL} def
/LT8 {PL [2 dl1 2 dl2 2 dl1 6 dl2] LC8 DL} def
/SL {[] 0 setdash} def
/Pnt {stroke [] 0 setdash gsave 1 setlinecap M 0 0 V stroke grestore} def
/Dia {stroke [] 0 setdash 2 copy vpt add M
  hpt neg vpt neg V hpt vpt neg V
  hpt vpt V hpt neg vpt V closepath stroke
  Pnt} def
/Pls {stroke [] 0 setdash vpt sub M 0 vpt2 V
  currentpoint stroke M
  hpt neg vpt neg R hpt2 0 V stroke
 } def
/Box {stroke [] 0 setdash 2 copy exch hpt sub exch vpt add M
  0 vpt2 neg V hpt2 0 V 0 vpt2 V
  hpt2 neg 0 V closepath stroke
  Pnt} def
/Crs {stroke [] 0 setdash exch hpt sub exch vpt add M
  hpt2 vpt2 neg V currentpoint stroke M
  hpt2 neg 0 R hpt2 vpt2 V stroke} def
/TriU {stroke [] 0 setdash 2 copy vpt 1.12 mul add M
  hpt neg vpt -1.62 mul V
  hpt 2 mul 0 V
  hpt neg vpt 1.62 mul V closepath stroke
  Pnt} def
/Star {2 copy Pls Crs} def
/BoxF {stroke [] 0 setdash exch hpt sub exch vpt add M
  0 vpt2 neg V hpt2 0 V 0 vpt2 V
  hpt2 neg 0 V closepath fill} def
/TriUF {stroke [] 0 setdash vpt 1.12 mul add M
  hpt neg vpt -1.62 mul V
  hpt 2 mul 0 V
  hpt neg vpt 1.62 mul V closepath fill} def
/TriD {stroke [] 0 setdash 2 copy vpt 1.12 mul sub M
  hpt neg vpt 1.62 mul V
  hpt 2 mul 0 V
  hpt neg vpt -1.62 mul V closepath stroke
  Pnt} def
/TriDF {stroke [] 0 setdash vpt 1.12 mul sub M
  hpt neg vpt 1.62 mul V
  hpt 2 mul 0 V
  hpt neg vpt -1.62 mul V closepath fill} def
/DiaF {stroke [] 0 setdash vpt add M
  hpt neg vpt neg V hpt vpt neg V
  hpt vpt V hpt neg vpt V closepath fill} def
/Pent {stroke [] 0 setdash 2 copy gsave
  translate 0 hpt M 4 {72 rotate 0 hpt L} repeat
  closepath stroke grestore Pnt} def
/PentF {stroke [] 0 setdash gsave
  translate 0 hpt M 4 {72 rotate 0 hpt L} repeat
  closepath fill grestore} def
/Circle {stroke [] 0 setdash 2 copy
  hpt 0 360 arc stroke Pnt} def
/CircleF {stroke [] 0 setdash hpt 0 360 arc fill} def
/C0 {BL [] 0 setdash 2 copy moveto vpt 90 450 arc} bind def
/C1 {BL [] 0 setdash 2 copy moveto
	2 copy vpt 0 90 arc closepath fill
	vpt 0 360 arc closepath} bind def
/C2 {BL [] 0 setdash 2 copy moveto
	2 copy vpt 90 180 arc closepath fill
	vpt 0 360 arc closepath} bind def
/C3 {BL [] 0 setdash 2 copy moveto
	2 copy vpt 0 180 arc closepath fill
	vpt 0 360 arc closepath} bind def
/C4 {BL [] 0 setdash 2 copy moveto
	2 copy vpt 180 270 arc closepath fill
	vpt 0 360 arc closepath} bind def
/C5 {BL [] 0 setdash 2 copy moveto
	2 copy vpt 0 90 arc
	2 copy moveto
	2 copy vpt 180 270 arc closepath fill
	vpt 0 360 arc} bind def
/C6 {BL [] 0 setdash 2 copy moveto
	2 copy vpt 90 270 arc closepath fill
	vpt 0 360 arc closepath} bind def
/C7 {BL [] 0 setdash 2 copy moveto
	2 copy vpt 0 270 arc closepath fill
	vpt 0 360 arc closepath} bind def
/C8 {BL [] 0 setdash 2 copy moveto
	2 copy vpt 270 360 arc closepath fill
	vpt 0 360 arc closepath} bind def
/C9 {BL [] 0 setdash 2 copy moveto
	2 copy vpt 270 450 arc closepath fill
	vpt 0 360 arc closepath} bind def
/C10 {BL [] 0 setdash 2 copy 2 copy moveto vpt 270 360 arc closepath fill
	2 copy moveto
	2 copy vpt 90 180 arc closepath fill
	vpt 0 360 arc closepath} bind def
/C11 {BL [] 0 setdash 2 copy moveto
	2 copy vpt 0 180 arc closepath fill
	2 copy moveto
	2 copy vpt 270 360 arc closepath fill
	vpt 0 360 arc closepath} bind def
/C12 {BL [] 0 setdash 2 copy moveto
	2 copy vpt 180 360 arc closepath fill
	vpt 0 360 arc closepath} bind def
/C13 {BL [] 0 setdash 2 copy moveto
	2 copy vpt 0 90 arc closepath fill
	2 copy moveto
	2 copy vpt 180 360 arc closepath fill
	vpt 0 360 arc closepath} bind def
/C14 {BL [] 0 setdash 2 copy moveto
	2 copy vpt 90 360 arc closepath fill
	vpt 0 360 arc} bind def
/C15 {BL [] 0 setdash 2 copy vpt 0 360 arc closepath fill
	vpt 0 360 arc closepath} bind def
/Rec {newpath 4 2 roll moveto 1 index 0 rlineto 0 exch rlineto
	neg 0 rlineto closepath} bind def
/Square {dup Rec} bind def
/Bsquare {vpt sub exch vpt sub exch vpt2 Square} bind def
/S0 {BL [] 0 setdash 2 copy moveto 0 vpt rlineto BL Bsquare} bind def
/S1 {BL [] 0 setdash 2 copy vpt Square fill Bsquare} bind def
/S2 {BL [] 0 setdash 2 copy exch vpt sub exch vpt Square fill Bsquare} bind def
/S3 {BL [] 0 setdash 2 copy exch vpt sub exch vpt2 vpt Rec fill Bsquare} bind def
/S4 {BL [] 0 setdash 2 copy exch vpt sub exch vpt sub vpt Square fill Bsquare} bind def
/S5 {BL [] 0 setdash 2 copy 2 copy vpt Square fill
	exch vpt sub exch vpt sub vpt Square fill Bsquare} bind def
/S6 {BL [] 0 setdash 2 copy exch vpt sub exch vpt sub vpt vpt2 Rec fill Bsquare} bind def
/S7 {BL [] 0 setdash 2 copy exch vpt sub exch vpt sub vpt vpt2 Rec fill
	2 copy vpt Square fill Bsquare} bind def
/S8 {BL [] 0 setdash 2 copy vpt sub vpt Square fill Bsquare} bind def
/S9 {BL [] 0 setdash 2 copy vpt sub vpt vpt2 Rec fill Bsquare} bind def
/S10 {BL [] 0 setdash 2 copy vpt sub vpt Square fill 2 copy exch vpt sub exch vpt Square fill
	Bsquare} bind def
/S11 {BL [] 0 setdash 2 copy vpt sub vpt Square fill 2 copy exch vpt sub exch vpt2 vpt Rec fill
	Bsquare} bind def
/S12 {BL [] 0 setdash 2 copy exch vpt sub exch vpt sub vpt2 vpt Rec fill Bsquare} bind def
/S13 {BL [] 0 setdash 2 copy exch vpt sub exch vpt sub vpt2 vpt Rec fill
	2 copy vpt Square fill Bsquare} bind def
/S14 {BL [] 0 setdash 2 copy exch vpt sub exch vpt sub vpt2 vpt Rec fill
	2 copy exch vpt sub exch vpt Square fill Bsquare} bind def
/S15 {BL [] 0 setdash 2 copy Bsquare fill Bsquare} bind def
/D0 {gsave translate 45 rotate 0 0 S0 stroke grestore} bind def
/D1 {gsave translate 45 rotate 0 0 S1 stroke grestore} bind def
/D2 {gsave translate 45 rotate 0 0 S2 stroke grestore} bind def
/D3 {gsave translate 45 rotate 0 0 S3 stroke grestore} bind def
/D4 {gsave translate 45 rotate 0 0 S4 stroke grestore} bind def
/D5 {gsave translate 45 rotate 0 0 S5 stroke grestore} bind def
/D6 {gsave translate 45 rotate 0 0 S6 stroke grestore} bind def
/D7 {gsave translate 45 rotate 0 0 S7 stroke grestore} bind def
/D8 {gsave translate 45 rotate 0 0 S8 stroke grestore} bind def
/D9 {gsave translate 45 rotate 0 0 S9 stroke grestore} bind def
/D10 {gsave translate 45 rotate 0 0 S10 stroke grestore} bind def
/D11 {gsave translate 45 rotate 0 0 S11 stroke grestore} bind def
/D12 {gsave translate 45 rotate 0 0 S12 stroke grestore} bind def
/D13 {gsave translate 45 rotate 0 0 S13 stroke grestore} bind def
/D14 {gsave translate 45 rotate 0 0 S14 stroke grestore} bind def
/D15 {gsave translate 45 rotate 0 0 S15 stroke grestore} bind def
/DiaE {stroke [] 0 setdash vpt add M
  hpt neg vpt neg V hpt vpt neg V
  hpt vpt V hpt neg vpt V closepath stroke} def
/BoxE {stroke [] 0 setdash exch hpt sub exch vpt add M
  0 vpt2 neg V hpt2 0 V 0 vpt2 V
  hpt2 neg 0 V closepath stroke} def
/TriUE {stroke [] 0 setdash vpt 1.12 mul add M
  hpt neg vpt -1.62 mul V
  hpt 2 mul 0 V
  hpt neg vpt 1.62 mul V closepath stroke} def
/TriDE {stroke [] 0 setdash vpt 1.12 mul sub M
  hpt neg vpt 1.62 mul V
  hpt 2 mul 0 V
  hpt neg vpt -1.62 mul V closepath stroke} def
/PentE {stroke [] 0 setdash gsave
  translate 0 hpt M 4 {72 rotate 0 hpt L} repeat
  closepath stroke grestore} def
/CircE {stroke [] 0 setdash 
  hpt 0 360 arc stroke} def
/Opaque {gsave closepath 1 setgray fill grestore 0 setgray closepath} def
/DiaW {stroke [] 0 setdash vpt add M
  hpt neg vpt neg V hpt vpt neg V
  hpt vpt V hpt neg vpt V Opaque stroke} def
/BoxW {stroke [] 0 setdash exch hpt sub exch vpt add M
  0 vpt2 neg V hpt2 0 V 0 vpt2 V
  hpt2 neg 0 V Opaque stroke} def
/TriUW {stroke [] 0 setdash vpt 1.12 mul add M
  hpt neg vpt -1.62 mul V
  hpt 2 mul 0 V
  hpt neg vpt 1.62 mul V Opaque stroke} def
/TriDW {stroke [] 0 setdash vpt 1.12 mul sub M
  hpt neg vpt 1.62 mul V
  hpt 2 mul 0 V
  hpt neg vpt -1.62 mul V Opaque stroke} def
/PentW {stroke [] 0 setdash gsave
  translate 0 hpt M 4 {72 rotate 0 hpt L} repeat
  Opaque stroke grestore} def
/CircW {stroke [] 0 setdash 
  hpt 0 360 arc Opaque stroke} def
/BoxFill {gsave Rec 1 setgray fill grestore} def
/Density {
  /Fillden exch def
  currentrgbcolor
  /ColB exch def /ColG exch def /ColR exch def
  /ColR ColR Fillden mul Fillden sub 1 add def
  /ColG ColG Fillden mul Fillden sub 1 add def
  /ColB ColB Fillden mul Fillden sub 1 add def
  ColR ColG ColB setrgbcolor} def
/BoxColFill {gsave Rec PolyFill} def
/PolyFill {gsave Density fill grestore grestore} def
/h {rlineto rlineto rlineto gsave closepath fill grestore} bind def
%
% PostScript Level 1 Pattern Fill routine for rectangles
% Usage: x y w h s a XX PatternFill
%	x,y = lower left corner of box to be filled
%	w,h = width and height of box
%	  a = angle in degrees between lines and x-axis
%	 XX = 0/1 for no/yes cross-hatch
%
/PatternFill {gsave /PFa [ 9 2 roll ] def
  PFa 0 get PFa 2 get 2 div add PFa 1 get PFa 3 get 2 div add translate
  PFa 2 get -2 div PFa 3 get -2 div PFa 2 get PFa 3 get Rec
  TransparentPatterns {} {gsave 1 setgray fill grestore} ifelse
  clip
  currentlinewidth 0.5 mul setlinewidth
  /PFs PFa 2 get dup mul PFa 3 get dup mul add sqrt def
  0 0 M PFa 5 get rotate PFs -2 div dup translate
  0 1 PFs PFa 4 get div 1 add floor cvi
	{PFa 4 get mul 0 M 0 PFs V} for
  0 PFa 6 get ne {
	0 1 PFs PFa 4 get div 1 add floor cvi
	{PFa 4 get mul 0 2 1 roll M PFs 0 V} for
 } if
  stroke grestore} def
%
/languagelevel where
 {pop languagelevel} {1} ifelse
dup 2 lt
	{/InterpretLevel1 true def
	 /InterpretLevel3 false def}
	{/InterpretLevel1 Level1 def
	 2 gt
	    {/InterpretLevel3 Level3 def}
	    {/InterpretLevel3 false def}
	 ifelse }
 ifelse
%
% PostScript level 2 pattern fill definitions
%
/Level2PatternFill {
/Tile8x8 {/PaintType 2 /PatternType 1 /TilingType 1 /BBox [0 0 8 8] /XStep 8 /YStep 8}
	bind def
/KeepColor {currentrgbcolor [/Pattern /DeviceRGB] setcolorspace} bind def
<< Tile8x8
 /PaintProc {0.5 setlinewidth pop 0 0 M 8 8 L 0 8 M 8 0 L stroke} 
>> matrix makepattern
/Pat1 exch def
<< Tile8x8
 /PaintProc {0.5 setlinewidth pop 0 0 M 8 8 L 0 8 M 8 0 L stroke
	0 4 M 4 8 L 8 4 L 4 0 L 0 4 L stroke}
>> matrix makepattern
/Pat2 exch def
<< Tile8x8
 /PaintProc {0.5 setlinewidth pop 0 0 M 0 8 L
	8 8 L 8 0 L 0 0 L fill}
>> matrix makepattern
/Pat3 exch def
<< Tile8x8
 /PaintProc {0.5 setlinewidth pop -4 8 M 8 -4 L
	0 12 M 12 0 L stroke}
>> matrix makepattern
/Pat4 exch def
<< Tile8x8
 /PaintProc {0.5 setlinewidth pop -4 0 M 8 12 L
	0 -4 M 12 8 L stroke}
>> matrix makepattern
/Pat5 exch def
<< Tile8x8
 /PaintProc {0.5 setlinewidth pop -2 8 M 4 -4 L
	0 12 M 8 -4 L 4 12 M 10 0 L stroke}
>> matrix makepattern
/Pat6 exch def
<< Tile8x8
 /PaintProc {0.5 setlinewidth pop -2 0 M 4 12 L
	0 -4 M 8 12 L 4 -4 M 10 8 L stroke}
>> matrix makepattern
/Pat7 exch def
<< Tile8x8
 /PaintProc {0.5 setlinewidth pop 8 -2 M -4 4 L
	12 0 M -4 8 L 12 4 M 0 10 L stroke}
>> matrix makepattern
/Pat8 exch def
<< Tile8x8
 /PaintProc {0.5 setlinewidth pop 0 -2 M 12 4 L
	-4 0 M 12 8 L -4 4 M 8 10 L stroke}
>> matrix makepattern
/Pat9 exch def
/Pattern1 {PatternBgnd KeepColor Pat1 setpattern} bind def
/Pattern2 {PatternBgnd KeepColor Pat2 setpattern} bind def
/Pattern3 {PatternBgnd KeepColor Pat3 setpattern} bind def
/Pattern4 {PatternBgnd KeepColor Landscape {Pat5} {Pat4} ifelse setpattern} bind def
/Pattern5 {PatternBgnd KeepColor Landscape {Pat4} {Pat5} ifelse setpattern} bind def
/Pattern6 {PatternBgnd KeepColor Landscape {Pat9} {Pat6} ifelse setpattern} bind def
/Pattern7 {PatternBgnd KeepColor Landscape {Pat8} {Pat7} ifelse setpattern} bind def
} def
%
%
%End of PostScript Level 2 code
%
/PatternBgnd {
  TransparentPatterns {} {gsave 1 setgray fill grestore} ifelse
} def
%
% Substitute for Level 2 pattern fill codes with
% grayscale if Level 2 support is not selected.
%
/Level1PatternFill {
/Pattern1 {0.250 Density} bind def
/Pattern2 {0.500 Density} bind def
/Pattern3 {0.750 Density} bind def
/Pattern4 {0.125 Density} bind def
/Pattern5 {0.375 Density} bind def
/Pattern6 {0.625 Density} bind def
/Pattern7 {0.875 Density} bind def
} def
%
% Now test for support of Level 2 code
%
Level1 {Level1PatternFill} {Level2PatternFill} ifelse
%
/Symbol-Oblique /Symbol findfont [1 0 .167 1 0 0] makefont
dup length dict begin {1 index /FID eq {pop pop} {def} ifelse} forall
currentdict end definefont pop
%
Level1 SuppressPDFMark or 
{} {
/SDict 10 dict def
systemdict /pdfmark known not {
  userdict /pdfmark systemdict /cleartomark get put
} if
SDict begin [
  /Title (checkS_Omega.tex)
  /Subject (gnuplot plot)
  /Creator (gnuplot 5.2 patchlevel 2)
%  /Producer (gnuplot)
%  /Keywords ()
  /CreationDate (Sat Mar 11 13:45:04 2023)
  /DOCINFO pdfmark
end
} ifelse
%
% Support for boxed text - Ethan A Merritt Sep 2016
%
/InitTextBox { userdict /TBy2 3 -1 roll put userdict /TBx2 3 -1 roll put
           userdict /TBy1 3 -1 roll put userdict /TBx1 3 -1 roll put
	   /Boxing true def } def
/ExtendTextBox { dup type /stringtype eq
    { Boxing { gsave dup false charpath pathbbox
      dup TBy2 gt {userdict /TBy2 3 -1 roll put} {pop} ifelse
      dup TBx2 gt {userdict /TBx2 3 -1 roll put} {pop} ifelse
      dup TBy1 lt {userdict /TBy1 3 -1 roll put} {pop} ifelse
      dup TBx1 lt {userdict /TBx1 3 -1 roll put} {pop} ifelse
      grestore } if }
    {} ifelse} def
/PopTextBox { newpath TBx1 TBxmargin sub TBy1 TBymargin sub M
               TBx1 TBxmargin sub TBy2 TBymargin add L
	       TBx2 TBxmargin add TBy2 TBymargin add L
	       TBx2 TBxmargin add TBy1 TBymargin sub L closepath } def
/DrawTextBox { PopTextBox stroke /Boxing false def} def
/FillTextBox { gsave PopTextBox fill grestore /Boxing false def} def
0 0 0 0 InitTextBox
/TBxmargin 20 def
/TBymargin 20 def
/Boxing false def
/textshow { ExtendTextBox Gshow } def
%
end
%%EndProlog
%%Page: 1 1
gnudict begin
gsave
doclip
50 50 translate
0.050 0.050 scale
0 setgray
newpath
1.000 UL
LTb
LCb setrgbcolor
[] 0 setdash
946 704 M
63 0 V
5794 0 R
-63 0 V
stroke
LTb
946 1116 M
63 0 V
5794 0 R
-63 0 V
stroke
946 1527 M
63 0 V
5794 0 R
-63 0 V
stroke
946 1939 M
63 0 V
5794 0 R
-63 0 V
stroke
946 2350 M
63 0 V
5794 0 R
-63 0 V
stroke
946 2762 M
63 0 V
5794 0 R
-63 0 V
stroke
946 3173 M
63 0 V
5794 0 R
-63 0 V
stroke
946 3585 M
63 0 V
5794 0 R
-63 0 V
stroke
946 3996 M
63 0 V
5794 0 R
-63 0 V
stroke
946 4408 M
63 0 V
5794 0 R
-63 0 V
stroke
946 4819 M
63 0 V
5794 0 R
-63 0 V
stroke
946 704 M
0 63 V
0 4052 R
0 -63 V
stroke
1532 704 M
0 63 V
0 4052 R
0 -63 V
stroke
2117 704 M
0 63 V
0 4052 R
0 -63 V
stroke
2703 704 M
0 63 V
0 4052 R
0 -63 V
stroke
3289 704 M
0 63 V
0 4052 R
0 -63 V
stroke
3875 704 M
0 63 V
0 4052 R
0 -63 V
stroke
4460 704 M
0 63 V
0 4052 R
0 -63 V
stroke
5046 704 M
0 63 V
0 4052 R
0 -63 V
stroke
5632 704 M
0 63 V
0 4052 R
0 -63 V
stroke
6217 704 M
0 63 V
0 4052 R
0 -63 V
stroke
6803 704 M
0 63 V
0 4052 R
0 -63 V
stroke
1.000 UL
LTb
946 4819 N
946 704 L
5857 0 V
0 4115 V
-5857 0 V
Z stroke
1.000 UP
1.000 UL
LTb
% Begin plot #1
1.000 UP
1.000 UL
LTb
0.58 0.00 0.83 C LCb setrgbcolor
1.000 UP
1.000 UL
LTb
0.58 0.00 0.83 C 951 4654 Pls
960 4649 Pls
970 4643 Pls
981 4635 Pls
991 4625 Pls
1002 4609 Pls
1013 4586 Pls
1025 4552 Pls
1037 4504 Pls
1050 4440 Pls
1063 4358 Pls
1076 4256 Pls
1090 4139 Pls
1104 4010 Pls
1118 3874 Pls
1133 3739 Pls
1149 3610 Pls
1165 3491 Pls
1182 3386 Pls
1199 3294 Pls
1217 3216 Pls
1235 3150 Pls
1254 3095 Pls
1273 3050 Pls
1293 3011 Pls
1314 2980 Pls
1336 2953 Pls
1358 2930 Pls
1381 2911 Pls
1404 2894 Pls
1429 2880 Pls
1454 2867 Pls
1480 2857 Pls
1507 2847 Pls
1535 2838 Pls
1563 2830 Pls
1593 2823 Pls
1623 2817 Pls
1655 2811 Pls
1687 2806 Pls
1721 2801 Pls
1756 2797 Pls
1792 2793 Pls
1829 2789 Pls
1867 2786 Pls
1906 2783 Pls
1947 2780 Pls
1989 2777 Pls
2033 2775 Pls
2077 2773 Pls
2124 2771 Pls
2172 2769 Pls
2221 2767 Pls
2272 2766 Pls
2325 2765 Pls
2379 2764 Pls
2435 2763 Pls
2493 2762 Pls
2553 2761 Pls
2615 2761 Pls
2678 2760 Pls
2744 2760 Pls
2812 2759 Pls
2883 2759 Pls
2955 2758 Pls
3030 2758 Pls
3107 2757 Pls
3187 2757 Pls
3270 2757 Pls
3355 2756 Pls
3443 2756 Pls
3533 2755 Pls
3627 2755 Pls
3724 2754 Pls
3824 2754 Pls
3925 2753 Pls
4025 2752 Pls
4122 2751 Pls
4216 2750 Pls
4306 2748 Pls
4394 2745 Pls
4479 2742 Pls
4562 2738 Pls
4642 2732 Pls
4719 2726 Pls
4794 2717 Pls
4866 2707 Pls
4937 2694 Pls
5005 2678 Pls
5071 2658 Pls
5134 2633 Pls
5196 2602 Pls
5256 2567 Pls
5314 2528 Pls
5370 2489 Pls
5424 2451 Pls
5477 2417 Pls
5528 2385 Pls
5577 2357 Pls
5625 2330 Pls
5672 2306 Pls
5716 2283 Pls
5760 2261 Pls
5802 2240 Pls
5843 2219 Pls
5882 2200 Pls
5920 2181 Pls
5957 2162 Pls
5993 2144 Pls
6028 2127 Pls
6062 2110 Pls
6094 2094 Pls
6126 2078 Pls
6156 2063 Pls
6186 2048 Pls
6214 2034 Pls
6242 2020 Pls
6269 2007 Pls
6295 1994 Pls
6320 1981 Pls
6345 1969 Pls
6368 1957 Pls
6391 1946 Pls
6413 1935 Pls
6435 1924 Pls
6456 1914 Pls
6476 1904 Pls
6495 1894 Pls
6514 1885 Pls
6532 1876 Pls
6550 1867 Pls
6567 1858 Pls
6584 1850 Pls
6600 1842 Pls
6616 1834 Pls
6631 1827 Pls
6645 1819 Pls
6659 1812 Pls
6673 1805 Pls
6686 1799 Pls
6699 1792 Pls
6712 1786 Pls
6724 1780 Pls
6736 1774 Pls
6747 1769 Pls
6758 1763 Pls
6768 1758 Pls
6779 1753 Pls
6789 1748 Pls
6798 1743 Pls
6369 4681 Pls
LTw
% End plot #1
% Begin plot #2
1.000 UP
1.000 UL
LTb
LCb setrgbcolor
[] 0 setdash
0.00 0.62 0.45 C LCb setrgbcolor
1.000 UP
1.000 UL
LTb
0.00 0.62 0.45 C 951 4705 Crs
960 4649 Crs
970 4643 Crs
981 4635 Crs
991 4625 Crs
1002 4609 Crs
1013 4586 Crs
1025 4552 Crs
1037 4504 Crs
1050 4440 Crs
1063 4358 Crs
1076 4256 Crs
1090 4139 Crs
1104 4010 Crs
1118 3874 Crs
1133 3739 Crs
1149 3610 Crs
1165 3491 Crs
1182 3386 Crs
1199 3294 Crs
1217 3216 Crs
1235 3150 Crs
1254 3095 Crs
1273 3050 Crs
1293 3011 Crs
1314 2980 Crs
1336 2953 Crs
1358 2930 Crs
1381 2911 Crs
1404 2894 Crs
1429 2880 Crs
1454 2867 Crs
1480 2857 Crs
1507 2847 Crs
1535 2838 Crs
1563 2830 Crs
1593 2823 Crs
1623 2817 Crs
1655 2811 Crs
1687 2806 Crs
1721 2801 Crs
1756 2797 Crs
1792 2793 Crs
1829 2789 Crs
1867 2786 Crs
1906 2783 Crs
1947 2780 Crs
1989 2777 Crs
2033 2775 Crs
2077 2773 Crs
2124 2771 Crs
2172 2769 Crs
2221 2767 Crs
2272 2766 Crs
2325 2765 Crs
2379 2764 Crs
2435 2763 Crs
2493 2762 Crs
2553 2761 Crs
2615 2761 Crs
2678 2760 Crs
2744 2760 Crs
2812 2759 Crs
2883 2759 Crs
2955 2758 Crs
3030 2758 Crs
3107 2757 Crs
3187 2757 Crs
3270 2757 Crs
3355 2756 Crs
3443 2756 Crs
3533 2755 Crs
3627 2755 Crs
3724 2754 Crs
3824 2754 Crs
3925 2753 Crs
4025 2752 Crs
4122 2751 Crs
4216 2750 Crs
4306 2748 Crs
4394 2745 Crs
4479 2742 Crs
4562 2738 Crs
4642 2732 Crs
4719 2726 Crs
4794 2717 Crs
4866 2707 Crs
4937 2694 Crs
5005 2678 Crs
5071 2658 Crs
5134 2633 Crs
5196 2602 Crs
5256 2567 Crs
5314 2528 Crs
5370 2489 Crs
5424 2451 Crs
5477 2417 Crs
5528 2385 Crs
5577 2357 Crs
5625 2330 Crs
5672 2306 Crs
5716 2283 Crs
5760 2261 Crs
5802 2240 Crs
5843 2219 Crs
5882 2200 Crs
5920 2181 Crs
5957 2162 Crs
5993 2144 Crs
6028 2127 Crs
6062 2110 Crs
6094 2094 Crs
6126 2078 Crs
6156 2063 Crs
6186 2048 Crs
6214 2034 Crs
6242 2020 Crs
6269 2007 Crs
6295 1994 Crs
6320 1981 Crs
6345 1969 Crs
6368 1957 Crs
6391 1946 Crs
6413 1935 Crs
6435 1924 Crs
6456 1914 Crs
6476 1904 Crs
6495 1894 Crs
6514 1885 Crs
6532 1876 Crs
6550 1867 Crs
6567 1858 Crs
6584 1850 Crs
6600 1842 Crs
6616 1834 Crs
6631 1827 Crs
6645 1819 Crs
6659 1812 Crs
6673 1805 Crs
6686 1799 Crs
6699 1792 Crs
6712 1786 Crs
6724 1780 Crs
6736 1774 Crs
6747 1769 Crs
6758 1763 Crs
6768 1758 Crs
6779 1753 Crs
6789 1748 Crs
6798 1794 Crs
6369 4531 Crs
LTw
% End plot #2
% Begin plot #3
1.000 UP
1.000 UL
LTb
LCb setrgbcolor
[] 0 setdash
0.34 0.71 0.91 C LCb setrgbcolor
1.000 UP
1.000 UL
LTb
0.34 0.71 0.91 C 951 869 Star
960 874 Star
970 880 Star
981 888 Star
991 898 Star
1002 914 Star
1013 937 Star
1025 971 Star
1037 1019 Star
1050 1083 Star
1063 1165 Star
1076 1267 Star
1090 1384 Star
1104 1513 Star
1118 1649 Star
1133 1784 Star
1149 1913 Star
1165 2032 Star
1182 2137 Star
1199 2229 Star
1217 2307 Star
1235 2373 Star
1254 2428 Star
1273 2473 Star
1293 2512 Star
1314 2543 Star
1336 2570 Star
1358 2593 Star
1381 2612 Star
1404 2629 Star
1429 2643 Star
1454 2656 Star
1480 2666 Star
1507 2676 Star
1535 2685 Star
1563 2693 Star
1593 2700 Star
1623 2706 Star
1655 2712 Star
1687 2717 Star
1721 2722 Star
1756 2726 Star
1792 2730 Star
1829 2734 Star
1867 2737 Star
1906 2740 Star
1947 2743 Star
1989 2746 Star
2033 2748 Star
2077 2750 Star
2124 2752 Star
2172 2754 Star
2221 2756 Star
2272 2757 Star
2325 2758 Star
2379 2759 Star
2435 2760 Star
2493 2761 Star
2553 2762 Star
2615 2762 Star
2678 2763 Star
2744 2763 Star
2812 2764 Star
2883 2764 Star
2955 2765 Star
3030 2765 Star
3107 2766 Star
3187 2766 Star
3270 2766 Star
3355 2767 Star
3443 2767 Star
3533 2768 Star
3627 2768 Star
3724 2769 Star
3824 2769 Star
3925 2770 Star
4025 2771 Star
4122 2772 Star
4216 2773 Star
4306 2775 Star
4394 2778 Star
4479 2781 Star
4562 2785 Star
4642 2791 Star
4719 2797 Star
4794 2806 Star
4866 2816 Star
4937 2829 Star
5005 2845 Star
5071 2865 Star
5134 2890 Star
5196 2921 Star
5256 2956 Star
5314 2995 Star
5370 3034 Star
5424 3072 Star
5477 3106 Star
5528 3138 Star
5577 3166 Star
5625 3193 Star
5672 3217 Star
5716 3240 Star
5760 3262 Star
5802 3283 Star
5843 3304 Star
5882 3323 Star
5920 3342 Star
5957 3361 Star
5993 3379 Star
6028 3396 Star
6062 3413 Star
6094 3429 Star
6126 3445 Star
6156 3460 Star
6186 3475 Star
6214 3489 Star
6242 3503 Star
6269 3516 Star
6295 3529 Star
6320 3542 Star
6345 3554 Star
6368 3566 Star
6391 3577 Star
6413 3588 Star
6435 3599 Star
6456 3609 Star
6476 3619 Star
6495 3629 Star
6514 3638 Star
6532 3647 Star
6550 3656 Star
6567 3665 Star
6584 3673 Star
6600 3681 Star
6616 3689 Star
6631 3696 Star
6645 3704 Star
6659 3711 Star
6673 3718 Star
6686 3724 Star
6699 3731 Star
6712 3737 Star
6724 3743 Star
6736 3749 Star
6747 3754 Star
6758 3760 Star
6768 3765 Star
6779 3770 Star
6789 3775 Star
6798 3780 Star
6369 4381 Star
LTw
% End plot #3
% Begin plot #4
1.000 UP
1.000 UL
LTb
LCb setrgbcolor
[] 0 setdash
0.90 0.62 0.00 C LCb setrgbcolor
1.000 UP
1.000 UL
LTb
0.90 0.62 0.00 C 951 818 Box
960 874 Box
970 880 Box
981 888 Box
991 898 Box
1002 914 Box
1013 937 Box
1025 971 Box
1037 1019 Box
1050 1083 Box
1063 1165 Box
1076 1267 Box
1090 1384 Box
1104 1513 Box
1118 1649 Box
1133 1784 Box
1149 1913 Box
1165 2032 Box
1182 2137 Box
1199 2229 Box
1217 2307 Box
1235 2373 Box
1254 2428 Box
1273 2473 Box
1293 2512 Box
1314 2543 Box
1336 2570 Box
1358 2593 Box
1381 2612 Box
1404 2629 Box
1429 2643 Box
1454 2656 Box
1480 2666 Box
1507 2676 Box
1535 2685 Box
1563 2693 Box
1593 2700 Box
1623 2706 Box
1655 2712 Box
1687 2717 Box
1721 2722 Box
1756 2726 Box
1792 2730 Box
1829 2734 Box
1867 2737 Box
1906 2740 Box
1947 2743 Box
1989 2746 Box
2033 2748 Box
2077 2750 Box
2124 2752 Box
2172 2754 Box
2221 2756 Box
2272 2757 Box
2325 2758 Box
2379 2759 Box
2435 2760 Box
2493 2761 Box
2553 2762 Box
2615 2762 Box
2678 2763 Box
2744 2763 Box
2812 2764 Box
2883 2764 Box
2955 2765 Box
3030 2765 Box
3107 2766 Box
3187 2766 Box
3270 2766 Box
3355 2767 Box
3443 2767 Box
3533 2768 Box
3627 2768 Box
3724 2769 Box
3824 2769 Box
3925 2770 Box
4025 2771 Box
4122 2772 Box
4216 2773 Box
4306 2775 Box
4394 2778 Box
4479 2781 Box
4562 2785 Box
4642 2791 Box
4719 2797 Box
4794 2806 Box
4866 2816 Box
4937 2829 Box
5005 2845 Box
5071 2865 Box
5134 2890 Box
5196 2921 Box
5256 2956 Box
5314 2995 Box
5370 3034 Box
5424 3072 Box
5477 3106 Box
5528 3138 Box
5577 3166 Box
5625 3193 Box
5672 3217 Box
5716 3240 Box
5760 3262 Box
5802 3283 Box
5843 3304 Box
5882 3323 Box
5920 3342 Box
5957 3361 Box
5993 3379 Box
6028 3396 Box
6062 3413 Box
6094 3429 Box
6126 3445 Box
6156 3460 Box
6186 3475 Box
6214 3489 Box
6242 3503 Box
6269 3516 Box
6295 3529 Box
6320 3542 Box
6345 3554 Box
6368 3566 Box
6391 3577 Box
6413 3588 Box
6435 3599 Box
6456 3609 Box
6476 3619 Box
6495 3629 Box
6514 3638 Box
6532 3647 Box
6550 3656 Box
6567 3665 Box
6584 3673 Box
6600 3681 Box
6616 3689 Box
6631 3696 Box
6645 3704 Box
6659 3711 Box
6673 3718 Box
6686 3724 Box
6699 3731 Box
6712 3737 Box
6724 3743 Box
6736 3749 Box
6747 3754 Box
6758 3760 Box
6768 3765 Box
6779 3770 Box
6789 3775 Box
6798 3729 Box
6369 4231 Box
LTw
% End plot #4
2.000 UL
LTb
LCb setrgbcolor
[] 0 setdash
1.000 UL
LTb
946 4819 N
946 704 L
5857 0 V
0 4115 V
-5857 0 V
Z stroke
1.000 UP
1.000 UL
LTb
stroke
grestore
end
showpage
%%Trailer
