-4.8464023030877525; 0.0029013990555935894
-3.951849316270823; 0.002903365106114066
-2.8975547246651567; 0.0029056822370846285
-2.0349500588059763; 0.002907578071515088
-1.331209296610318; 0.002799234644618815
-0.6578369933470256; 0.0024930222760545587
-0.33466743904365615; 0.0020321940772728073
-0.33045447364263403; 0.0015047308090648977
-0.03870661962188571; 0.000977899485667141
0.06170238910246262; 0.00040669159337862297
0.6372987870170466; 0.0003420225744729423
1.5300963715835483; 0.0005637649867467134
2.167482928713113; 0.0007629680341250215
2.61212631874594; 0.0010936156020152025
2.831376059824109; 0.0016435480190285616
3.017448698369231; 0.00234725367317921
3.075025892183193; 0.003138589007671109
3.2935734723611922; 0.0037764319693857863
3.671160496427756; 0.004502536556251866
4.344181719240963; 0.004240279460038269
5.178348868643248; 0.0038025523548721202
6.042708936752858; 0.0035846718275492845
7.034511208243369; 0.0034110274369371753
8.057384099566416; 0.0033473414432917325
9.239823055453158; 0.0033059841662717027
10.294117647058822; 0.003308301297242265
11.668597609142136; 0.0032234100444116787
12.786964382888339; 0.0032038899713869454
13.905155616409498; 0.003206347534537542
14.832008004634261; 0.003164428528797376

