-4.961297154807571; -0.0010193780879423908
-4.062141684411819; 0.0034527813860643075
-2.9764811647423173; -0.021650737296819766
-2.2011290869404565; -0.031859755516869814
-1.302354550060378; -0.0028173842819214645
-0.6520248521025618; 0.05091709743898387
-0.2820622216804498; 0.1883274352127321
0.025808245686880227; 0.33068229001992255
0.2717389234056977; 0.4681535771561788
0.8910606331876902; 0.5219032962177109
1.7280477538255248; 0.5362340150773484
2.5658729281978427; 0.49651026806291476
2.5658729281978427; 0.49651026806291476
2.9399496405892283; 0.3685623188184963
3.1922038146682254; 0.09816809072312593
3.5678804478254396; -0.13297474791724628
4.128462209490577; -0.2904983753185557
5.337164254722621; -0.2517802927855002
6.9489701462403755; -0.21326029568059512
8.251381836328106; -0.2188143063391148
9.80147649830675; -0.19992000396170884
12.158312159778754; -0.21582016890592115
13.894759497624877; -0.21667345998102983

